hrm_31178,File="F:\db\oscript_config_info\3.1.1.78",0,ЗарплатаИУправлениеПерсоналомДляКазахстана,Администратор,
hrm_20194,File="F:\db\oscript_config_info\2.0.19.4",1,ЗарплатаИУправлениеПерсоналомДляКазахстана,Администратор,
bk_20292,File="F:\db\oscript_config_info\2.0.29.2",1,БухгалтерияДляКазахстана,Администратор,
bk_30413,File="F:\db\oscript_config_info\3.1.1.78",0,БухгалтерияДляКазахстана,Администратор,